<?xml version="1.0" encoding="UTF-8" standalone="no"?>
<svg
   xmlns:dc="http://purl.org/dc/elements/1.1/"
   xmlns:cc="http://creativecommons.org/ns#"
   xmlns:rdf="http://www.w3.org/1999/02/22-rdf-syntax-ns#"
   xmlns:svg="http://www.w3.org/2000/svg"
   xmlns="http://www.w3.org/2000/svg"
   xmlns:sodipodi="http://sodipodi.sourceforge.net/DTD/sodipodi-0.dtd"
   xmlns:inkscape="http://www.inkscape.org/namespaces/inkscape"
   id="Layer_1"
   data-name="Layer 1"
   viewBox="0 0 6.64 35.02"
   version="1.1"
   sodipodi:docname="Artboard 6.svg"
   inkscape:version="0.92.2 (unknown)">
  <metadata
     id="metadata943">
    <rdf:RDF>
      <cc:Work
         rdf:about="">
        <dc:format>image/svg+xml</dc:format>
        <dc:type
           rdf:resource="http://purl.org/dc/dcmitype/StillImage" />
      </cc:Work>
    </rdf:RDF>
  </metadata>
  <sodipodi:namedview
     pagecolor="#ffffff"
     bordercolor="#666666"
     borderopacity="1"
     objecttolerance="10"
     gridtolerance="10"
     guidetolerance="10"
     inkscape:pageopacity="0"
     inkscape:pageshadow="2"
     inkscape:window-width="1600"
     inkscape:window-height="876"
     id="namedview941"
     showgrid="false"
     inkscape:zoom="20.959451"
     inkscape:cx="3.3199999"
     inkscape:cy="17.51"
     inkscape:window-x="0"
     inkscape:window-y="24"
     inkscape:window-maximized="1"
     inkscape:current-layer="Layer_1" />
  <defs
     id="defs934">
    <style
       id="style932">.cls-1{fill:#232628;}</style>
  </defs>
  <title
     id="title936">Artboard 6</title>
  <path
     class="cls-1"
     d="M4.15,27.08a1.67,1.67,0,0,0,.73-1.45A1.73,1.73,0,0,0,4,24.1L4.07.52A1.43,1.43,0,0,0,3.18,0a1.38,1.38,0,0,0-1,.52V24.21a1.63,1.63,0,0,0-.83,1.48,2.05,2.05,0,0,0,.3,1.06,1.27,1.27,0,0,1,.26.55v.41a1.48,1.48,0,0,0,.34.84,10.91,10.91,0,0,1,.88.9,2.88,2.88,0,0,1,1,1.79,1.15,1.15,0,0,1-.33,1c-1.1.95-2,1.55-3.84-.49C.07,32.57,1,35,3.27,35a3.4,3.4,0,0,0,3.36-3.55,3.55,3.55,0,0,0-2.33-3.08C3.64,27.85,3.82,27.38,4.15,27.08Zm-1-.74a.72.72,0,0,1-.73-.73h0c.15.17.47.18.69.22a.85.85,0,0,0,.67-.19h0A.55.55,0,0,1,3.1,26.34Z"
     id="path938"
     style="fill:#999999" />
</svg>
